[{
  "_id": {
    "$oid": "5fd22214ac51203a127e331c"
  },
  "deleted": false,
  "barang": {
    "_id": {
      "$oid": "5fccb45e683964d75bd4d3bc"
    },
    "nama": "Pepsodent",
    "harga": 14500,
    "pemasok": {
      "_id": {
        "$oid": "5fccb431683964d75bd4d3b9"
      },
      "nama": "Khay"
    },
    "image": null
  },
  "pelanggan": {
    "_id": {
      "$oid": "5fccb3f6683964d75bd4d3b6"
    },
    "nama": "Tommy"
  },
  "jumlah": 1,
  "total": {
    "$numberDecimal": "14500"
  },
  "created_at": {
    "$date": "2020-12-10T13:26:44.927Z"
  },
  "updated_at": {
    "$date": "2020-12-10T13:26:44.927Z"
  }
},{
  "_id": {
    "$oid": "5fd22214ac51203a127e331d"
  },
  "deleted": false,
  "barang": {
    "_id": {
      "$oid": "5fccb5b9683964d75bd4d3c3"
    },
    "nama": "Lifeboy",
    "harga": 24600,
    "pemasok": {
      "_id": {
        "$oid": "5fccb43a683964d75bd4d3ba"
      },
      "nama": "Heru"
    },
    "image": null
  },
  "pelanggan": {
    "_id": {
      "$oid": "5fccb406683964d75bd4d3b7"
    },
    "nama": "Firman"
  },
  "jumlah": 2,
  "total": {
    "$numberDecimal": "49200"
  },
  "created_at": {
    "$date": "2020-12-10T13:26:44.927Z"
  },
  "updated_at": {
    "$date": "2020-12-10T13:26:44.927Z"
  }
},{
  "_id": {
    "$oid": "5fd22214ac51203a127e331e"
  },
  "deleted": false,
  "barang": {
    "_id": {
      "$oid": "5fccb5f3683964d75bd4d3c5"
    },
    "nama": "Clear",
    "harga": 44500,
    "pemasok": {
      "_id": {
        "$oid": "5fccb442683964d75bd4d3bb"
      },
      "nama": "Siti"
    },
    "image": null
  },
  "pelanggan": {
    "_id": {
      "$oid": "5fccb416683964d75bd4d3b8"
    },
    "nama": "Ilham"
  },
  "jumlah": 3,
  "total": {
    "$numberDecimal": "133500"
  },
  "created_at": {
    "$date": "2020-12-10T13:26:44.928Z"
  },
  "updated_at": {
    "$date": "2020-12-10T13:26:44.928Z"
  }
}]